{
"meta":{"launch_mode":"Train","name":"experiment","iteration_count":25000,"learn_metrics":[{"best_value":"Min","name":"RMSE"}],"test_sets":[],"test_metrics":[],"learn_sets":["learn"]},
"iterations":[
]}